<!-- Generated by IcoMoon.io -->
<svg version="1.1" xmlns="http://www.w3.org/2000/svg" width="32" height="32" viewBox="0 0 32 32">
<path fill="none" stroke-linejoin="round" stroke-linecap="round" stroke-miterlimit="4" stroke-width="2" stroke="#000" d="M25.915 10.338c-0.234-0.653-1.033-2.378-3.512-4.809-2.627-2.576-4.447-3.301-5.013-3.479-1.129-0.035-2.259-0.052-3.389-0.051-4.176 0-7.044 0.213-8.832 0.418-1.467 0.168-2.567 1.269-2.728 2.737-0.213 1.927-0.44 5.161-0.44 10.179s0.227 8.252 0.44 10.179c0.161 1.468 1.261 2.569 2.728 2.737 1.265 0.145 3.071 0.293 5.499 0.369"></path>
<path fill="none" stroke-linejoin="round" stroke-linecap="round" stroke-miterlimit="4" stroke-width="2" stroke="#000" d="M25.924 10.639c-1.391 0.207-3.894 0.048-5.793-0.127-0.724-0.065-1.402-0.381-1.917-0.894s-0.834-1.19-0.902-1.914c-0.179-1.868-0.337-4.311-0.12-5.659"></path>
<path fill="none" stroke-linejoin="round" stroke-linecap="round" stroke-miterlimit="4" stroke-width="2" stroke="#000" d="M27.333 22.839c0 0-0.315-1.405-2.208-3.297s-3.297-2.208-3.297-2.208"></path>
<path fill="none" stroke-linejoin="round" stroke-linecap="round" stroke-miterlimit="4" stroke-width="2" stroke="#000" d="M6.667 8.667l2.667 2.667 3.333-4.667"></path>
<path fill="none" stroke-linejoin="round" stroke-linecap="round" stroke-miterlimit="4" stroke-width="2" stroke="#000" d="M6.667 16l2.667 2.667 3.333-4.667"></path>
<path fill="none" stroke-linejoin="round" stroke-linecap="round" stroke-miterlimit="4" stroke-width="2" stroke="#000" d="M29.11 21.062c0.969-0.969 1.34-2.385 0.529-3.49-0.358-0.484-0.753-0.94-1.18-1.364-0.493-0.493-0.953-0.879-1.365-1.18-1.105-0.811-2.521-0.44-3.49 0.529l-8.227 8.227c-0.362 0.362-0.61 0.822-0.653 1.333-0.058 0.693-0.101 1.873 0.011 3.618 0.020 0.31 0.152 0.603 0.372 0.823s0.513 0.352 0.823 0.372c1.745 0.112 2.925 0.069 3.619 0.011 0.511-0.043 0.971-0.291 1.333-0.653l8.226-8.226z"></path>
</svg>
