<svg width="443" height="443" viewBox="0 0 443 443" fill="none" xmlns="http://www.w3.org/2000/svg">
<rect width="443" height="443" rx="32" fill="white"/>
<rect width="443" height="443" rx="32" fill="url(#paint0_linear_3890_5472)" fill-opacity="0.2"/>
<defs>
<linearGradient id="paint0_linear_3890_5472" x1="-4.95091e-06" y1="2.14539e-05" x2="443" y2="443" gradientUnits="userSpaceOnUse">
<stop stop-opacity="0"/>
<stop offset="1"/>
</linearGradient>
</defs>
</svg>
