{
    "objects": [
        {
            "id": 1,
            "bank": 3200,
            "region": "ternopil",
            "regionUa": "Тернопільска обсласть",
            "shapeISO": "UA-61",
            "type": [
                "plant",
                "animal"
            ],
            "price": 9100000
        },
        {
            "id": 2,
            "bank": 8000,
            "region": "gitimor",
            "regionUa": "Житомирська обсласть",
            "shapeISO": "UA-18",
            "type": [
                "plant",
                "elevator"
            ],
            "price": 17000000
        },
        {
            "id": 3,
            "region": "khmelnitsk",
            "regionUa": "Хмельницька обсласть",
            "shapeISO": "UA-68",
            "type": [
                "plant"
            ],
            "price": 2850000,
            "bank": 1900
        },
        {
            "id": 4,
            "region": "khmelnitsk",
            "regionUa": "Хмельницька обсласть",
            "shapeISO": "UA-68",
            "type": [
                "plant"
            ],
            "price": 2700000,
            "bank": 1800
        },
        {
            "id": 5,
            "region": "khmelnitsk",
            "regionUa": "Хмельницька обсласть",
            "shapeISO": "UA-68",
            "type": [
                "plant"
            ],
            "price": 2850000,
            "bank": 1900
        },
        {
            "id": 6,
            "region": "zakarpatska",
            "regionUa": "Закарпатська обсласть",
            "shapeISO": "UA-21",
            "type": [
                "plant"
            ],
            "price": 3910000,
            "bank": 1700
        },
        {
            "id": 7,
            "region": "volynska",
            "regionUa": "Волинська обсласть",
            "shapeISO": "UA-07",
            "type": [
                "plant"
            ],
            "price": 810000,
            "bank": 2700
        },
        {
            "id": 8,
            "region": "odesska",
            "regionUa": "ОДЕСЬКА ОБЛАСТЬ",
            "shapeISO": "UA-51",
            "type": [
                "plant"
            ],
            "price": 650000,
            "bank": 850,
            "lease-rent": "5-10 років",
            "description": "ТЕХНІКА: матеріальна база, склади, майстерні, офіс, імпортна техніка та звичайна техніка"
        },
        {
            "id": 9,
            "region": "lviv",
            "regionUa": "ЛЬВІВСЬКА ОБЛАСТЬ",
            "shapeISO": "UA-46",
            "type": [
                "plant"
            ],
            "price": 650000000,
            "bank": 5000,
            "lease-rent": "7-10 років",
            "description": ""
        },
        {
            "id": 10,
            "region": "lviv",
            "regionUa": "ЛЬВІВСЬКА ОБЛАСТЬ",
            "shapeISO": "UA-46",
            "type": [
                "plant"
            ],
            "price": 1200000,
            "bank": 1500,
            "lease-rent": "7 років",
            "description": ""
        },
        {
            "id": 11,
            "region": "lviv",
            "regionUa": "ЛЬВІВСЬКА ОБЛАСТЬ",
            "shapeISO": "UA-46",
            "type": [
                "plant"
            ],
            "price": 1785000,
            "bank": 2100,
            "lease-rent": "10 років",
            "description": ""
        },
        {
            "id": 12,
            "region": "vinnitska",
            "regionUa": "ВІННИЦЬКА ОБЛАСТЬ",
            "shapeISO": "UA-05",
            "type": [
                "plant"
            ],
            "price": 3800000,
            "bank": 3800,
            "lease-rent": "2-8 років",
            "description": "ЕЛЕВАТОР:  на 30 000 тонн зберігання"
        },
        {
            "id": 13,
            "region": "РІВНЕНСЬКА",
            "regionUa": "РІВНЕНСЬКА ОБЛАСТЬ",
            "shapeISO": "UA-56",
            "type": [
                "plant"
            ],
            "price": 3800000,
            "bank": 3800,
            "lease-rent": "2-8 років",
            "description": "ЕЛЕВАТОР:  на 30 000 тонн зберігання"
        },
        {
            "id": 14,
            "region": "РІВНЕНСЬКА",
            "regionUa": "РІВНЕНСЬКА ОБЛАСТЬ",
            "shapeISO": "UA-56",
            "type": [
                "plant"
            ],
            "price": 3800000,
            "bank": 3800,
            "lease-rent": "2-8 років",
            "description": "ЕЛЕВАТОР:  на 30 000 тонн зберігання"
        },
        {
            "id": 15,
            "bank": 1380,
            "region": "gitimor",
            "regionUa": "Житомирська обсласть",
            "shapeISO": "UA-18",
            "type": [
                "plant",
                "elevator"
            ],
            "price": 1173000,
            "lease-rent": "7-9 років",
            "description": ""
        },
        {
            "id": 16,
            "bank": 16000,
            "region": "gitimor",
            "regionUa": "Житомирська обсласть",
            "shapeISO": "UA-18",
            "type": [
                "plant",
                "elevator"
            ],
            "price": 38000000,
            "lease-rent": "5-15 років",
            "description": "ЕЛЕВАТОР:  на 35 000 тонн зберігання"
        },
        {
            "id": 17,
            "region": "volynska",
            "regionUa": "Волинська обсласть",
            "shapeISO": "UA-07",
            "type": [
                "plant"
            ],
            "price": 1812000,
            "bank": 3625,
            "lease-rent": "9 років",
            "description": ""
        },
        {
            "id": 18,
            "region": "volynska",
            "regionUa": "Волинська обсласть",
            "shapeISO": "UA-07",
            "type": [
                "plant"
            ],
            "price": 900000,
            "bank": 3000,
            "lease-rent": "10-25 років",
            "description": ""
        },
        {
            "id": 19,
            "region": "volynska",
            "regionUa": "Волинська обсласть",
            "shapeISO": "UA-07",
            "type": [
                "plant"
            ],
            "price": 65000,
            "bank": 2200,
            "lease-rent": "7-30 років",
            "description": ""
        }
    ]
}