[
  {
    "name": "minScore",
    "expected": 1,
    "actual": 0.82,
    "values": [
      0.82
    ],
    "operator": ">=",
    "passed": false,
    "auditProperty": "seo",
    "auditId": "categories",
    "level": "error",
    "url": "http://localhost:4322/"
  },
  {
    "name": "minScore",
    "expected": 1,
    "actual": 0.82,
    "values": [
      0.82
    ],
    "operator": ">=",
    "passed": false,
    "auditProperty": "seo",
    "auditId": "categories",
    "level": "error",
    "url": "http://localhost:4322/en"
  }
]