<svg width="0" height="0" class="hidden" xmlns="http://www.w3.org/2000/svg">
 <symbol id="icon-point" viewBox="0 0 17 29">
<path fill="#e00502" style="fill: var(--color1, #e00502)" d="M8.732 0.264c-6.981-0.020-8.738 5.227-8.732 8.327 0.013 6.685 3.567 11.803 8.816 20.146 5.129-8.432 8.584-13.448 8.584-20.121 0-3.294-1.687-8.332-8.668-8.352zM8.648 4.485c2.401-0 4.347 1.874 4.347 4.186s-1.947 4.186-4.347 4.186c-2.4-0-4.346-1.874-4.346-4.186s1.946-4.185 4.346-4.186z"></path>
</symbol>
  <symbol id="icon-phone"  viewBox="0 0 32 32" xmlns="http://www.w3.org/2000/svg">
<path d="M22 20c-2 2-2 4-4 4s-4-2-6-4-4-4-4-6 2-2 4-4-4-8-6-8-6 6-6 6c0 4 4.109 12.109 8 16s12 8 16 8c0 0 6-4 6-6s-6-8-8-6z" fill="#E00502"></path>
</symbol>
<symbol xmlns="http://www.w3.org/2000/svg" viewBox="0 0 24 24" id="icon-mail" fill="none">
   
  <g id="Complete">
    <g id="mail">
      <g>
        <polyline fill="none" points="4 8.2 12 14.1 20 8.2" stroke="#E00502" stroke-linecap="round" stroke-linejoin="round" stroke-width="2"></polyline>
        <rect fill="none" height="14" rx="2" ry="2" stroke="#E00502" stroke-linecap="round" stroke-linejoin="round" stroke-width="2" width="18" x="3" y="6.5" ></rect>
      </g>
    </g>
  </g>
</symbol>
<symbol id="icon-whatsapp" viewBox="0 0 29 29" >
<path d="M29 14.127c0 7.802-6.374 14.126-14.238 14.126-2.496 0-4.84-0.638-6.88-1.756l-7.882 2.503 2.569-7.581c-1.296-2.128-2.042-4.626-2.042-7.293 0.001-7.802 6.373-14.126 14.237-14.126 7.863 0.002 14.236 6.325 14.236 14.127zM14.761 2.253c-6.6 0-11.968 5.328-11.968 11.877 0 2.599 0.847 5.004 2.28 6.962l-1.494 4.41 4.598-1.461c1.891 1.241 4.154 1.963 6.585 1.963 6.6 0 11.97-5.327 11.97-11.876 0.002-6.547-5.369-11.874-11.97-11.874zM21.952 17.381c-0.089-0.143-0.322-0.23-0.67-0.404s-2.065-1.011-2.384-1.124c-0.322-0.116-0.554-0.175-0.787 0.172-0.23 0.347-0.899 1.126-1.105 1.359-0.203 0.232-0.407 0.261-0.756 0.090-0.349-0.176-1.474-0.539-2.808-1.718-1.037-0.919-1.738-2.051-1.94-2.398-0.205-0.346-0.021-0.533 0.152-0.705 0.156-0.156 0.349-0.405 0.524-0.608 0.175-0.201 0.233-0.344 0.349-0.576 0.114-0.232 0.057-0.433-0.029-0.608s-0.784-1.876-1.076-2.569c-0.29-0.692-0.581-0.578-0.785-0.578s-0.436-0.028-0.669-0.028-0.611 0.084-0.93 0.431-1.221 1.184-1.221 2.888c0 1.706 1.249 3.35 1.424 3.581s2.415 3.841 5.962 5.228c3.549 1.385 3.549 0.923 4.188 0.864 0.641-0.059 2.065-0.837 2.355-1.644 0.291-0.811 0.291-1.506 0.203-1.651z" fill="#E00502"></path>
</symbol>
<symbol id="icon-ukraine" viewBox="0 0 29 29">
<path fill="#005bbb" style="fill: var(--color2, #005bbb)" d="M25.778 4.028h-22.556c-1.78 0-3.222 1.443-3.222 3.222v0 7.25h29v-7.25c0-1.78-1.443-3.222-3.222-3.222v0z"></path>
<path fill="#ffd500" style="fill: var(--color3, #ffd500)" d="M29 21.75c0 1.78-1.443 3.222-3.222 3.222v0h-22.556c-1.78 0-3.222-1.443-3.222-3.222v0-7.25h29v7.25z"></path>
</symbol>

<symbol fill="none" xmlns="http://www.w3.org/2000/svg" viewBox="0 0 224 67" id="rec_top">
  <g opacity="0.4">
    <mask id="path-1-inside-1_3880_3364" fill="white">
      <path d="M0 0H212C218.627 0 224 5.37258 224 12V67H0V0Z"></path>
    </mask>
    <path d="M0 -2H212C219.732 -2 226 4.26801 226 12H222C222 6.47715 217.523 2 212 2H0V-2ZM224 67H0H224ZM0 67V0V67ZM212 -2C219.732 -2 226 4.26801 226 12V67H222V12C222 6.47715 217.523 2 212 2V-2Z" fill="#362B2B" mask="url(#path-1-inside-1_3880_3364)"></path>
  </g>
</symbol>
<symbol id= "aagro" viewBox= "0 0 128 40">
  <svg width="130" height="41" viewBox="0 0 130 41" fill="none" xmlns="http://www.w3.org/2000/svg">
    <path d="M24.7674 10.2322V21.8055C24.7674 24.4722 24.9802 28.3122 25.1399 28.9522H17.8495C17.6367 28.4189 17.477 26.9255 17.477 26.2322C16.466 27.7789 14.6035 29.5922 9.70775 29.5922C3.05596 29.5922 0.288818 25.2189 0.288818 20.9522C0.288818 14.6589 5.29096 11.7255 13.3795 11.7255H17.3174V10.0722C17.3174 8.09888 16.6256 6.17888 13.0602 6.17888C9.86739 6.17888 9.12239 7.51222 8.8031 9.53888H1.56596C1.93846 4.63222 4.97168 0.685547 13.3795 0.685547C20.7231 0.738879 24.7674 3.61888 24.7674 10.2322ZM17.3174 17.1122V16.3655H14.231C9.60132 16.3655 7.89846 17.8055 7.89846 20.4722C7.89846 22.4455 9.12239 24.1522 11.8895 24.1522C16.732 24.1522 17.3174 20.7389 17.3174 17.1122ZM51.8319 10.2322V21.8055C51.8319 24.4722 52.0447 28.3122 52.2044 28.9522H44.914C44.7012 28.4189 44.5415 26.9255 44.5415 26.2322C43.5304 27.7789 41.6679 29.5922 36.7722 29.5922C30.1204 29.5922 27.3533 25.2189 27.3533 20.9522C27.3533 14.6589 32.3554 11.7255 40.444 11.7255H44.3819V10.0722C44.3819 8.09888 43.6901 6.17888 40.1247 6.17888C36.9319 6.17888 36.1869 7.51222 35.8676 9.53888H28.6304C29.0029 4.63222 32.0362 0.685547 40.444 0.685547C47.7876 0.738879 51.8319 3.61888 51.8319 10.2322ZM44.3819 17.1122V16.3655H41.2954C36.6658 16.3655 34.9629 17.8055 34.9629 20.4722C34.9629 22.4455 36.1869 24.1522 38.954 24.1522C43.7965 24.1522 44.3819 20.7389 44.3819 17.1122ZM81.078 9.27222V25.5922C81.078 34.4455 77.8319 40.0456 67.402 40.0456C57.3445 40.0456 55.3756 34.4455 55.1095 31.2989H62.8788C63.4109 33.2189 64.7945 34.4989 67.7213 34.4989C72.6702 34.4989 73.6281 31.4589 73.6281 26.0722V24.7389C72.1913 27.1389 69.9031 28.6322 65.8588 28.6322C58.6216 28.6322 54.4709 22.6589 54.4709 15.2455C54.4709 6.60555 59.6327 0.685547 66.4974 0.685547C71.2334 0.685547 73.2024 2.92555 73.6281 4.20555C73.6813 3.45888 73.8941 1.80555 73.9474 1.32555H81.1312C81.1312 3.83222 81.078 6.60555 81.078 9.27222ZM62.2934 14.9255C62.2934 19.6722 64.6881 22.4455 68.0406 22.4455C72.617 22.4455 73.8409 19.2989 73.8409 14.6589C73.8409 10.0189 73.0427 6.81888 68.2002 6.81888C64.9009 6.81888 62.2934 9.37888 62.2934 14.9255ZM85.1572 28.9522V8.84555C85.1572 6.07222 85.1572 3.67221 85.104 1.32555H92.6073C92.7137 1.96555 92.8201 4.68555 92.8201 6.17888C94.044 3.03221 96.9708 0.738879 101.654 0.685547V7.99222C96.1194 7.83222 92.8201 9.32555 92.8201 16.8989V28.9522H85.1572ZM115.732 0.685547C123.82 0.685547 129.089 6.44555 129.089 15.0855C129.089 23.4589 124.087 29.5922 115.359 29.5922C106.845 29.5922 101.843 23.4589 101.843 15.2455C101.843 6.71222 107.005 0.685547 115.732 0.685547ZM115.413 6.71222C111.9 6.71222 109.559 9.32555 109.559 15.1389C109.559 20.4722 111.847 23.6189 115.519 23.6189C119.297 23.6189 121.373 20.4722 121.373 15.1922C121.373 9.43222 119.244 6.71222 115.413 6.71222Z" fill="white"/>
    </svg>

</symbol>

<symbol id= "aagrowhite" viewBox="0 0 149 48">
  <svg width="149" height="48" fill="none" xmlns="http://www.w3.org/2000/svg">
    <path d="M86.7903 36.2429H85.0661L84.7035 37.3332H83.6978L85.2987 32.6086H86.5782L88.2544 37.3332H87.1802L86.7903 36.2429ZM85.2851 35.4063H86.5713C86.2361 34.4052 86.024 33.7675 85.9077 33.3423H85.9008C85.7845 33.8086 85.5519 34.5492 85.2851 35.4063ZM88.8603 37.3332V32.6086H90.9197C92.0623 32.6086 92.4933 33.1983 92.4933 33.8155C92.4933 34.3503 92.2128 34.6932 91.8912 34.8372C92.2128 34.9606 92.6302 35.2966 92.6302 35.9206C92.6302 36.7298 91.9939 37.3332 90.995 37.3332H88.8603ZM89.8592 34.4738H90.8034C91.2892 34.4738 91.4876 34.2543 91.4876 33.9183C91.4876 33.5755 91.2276 33.3972 90.8376 33.3972H89.8592V34.4738ZM89.8592 35.2623V36.5446H90.7829C91.337 36.5446 91.5834 36.3115 91.5834 35.8863C91.5834 35.5023 91.337 35.2623 90.776 35.2623H89.8592ZM95.5645 32.54C96.9466 32.54 97.8223 33.5069 97.8223 34.9538C97.8223 36.2703 97.0355 37.4018 95.503 37.4018C94.0183 37.4018 93.2452 36.3252 93.2452 34.9675C93.2452 33.596 94.1004 32.54 95.5645 32.54ZM95.5235 33.3698C94.6683 33.3698 94.2988 34.028 94.2988 34.9469C94.2988 35.8726 94.7025 36.572 95.5372 36.572C96.4471 36.572 96.7687 35.8109 96.7687 34.9675C96.7687 34.0692 96.3992 33.3698 95.5235 33.3698ZM98.6472 32.6086H99.6666V35.42C99.6666 36.332 100.132 36.5995 100.645 36.5995C101.227 36.5995 101.589 36.284 101.589 35.42V32.6086H102.615V35.372C102.615 36.9903 101.671 37.4018 100.631 37.4018C99.564 37.4018 98.6472 36.9698 98.6472 35.3926V32.6086ZM104.718 37.3332V33.4452H103.281V32.6086H107.168V33.4452H105.738V37.3332H104.718ZM112.059 36.2429H110.335L109.973 37.3332H108.967L110.568 32.6086H111.847L113.524 37.3332H112.449L112.059 36.2429ZM110.554 35.4063H111.841C111.505 34.4052 111.293 33.7675 111.177 33.3423H111.17C111.054 33.8086 110.821 34.5492 110.554 35.4063ZM118.168 34.6863V37.3332H117.423C117.382 37.1892 117.354 37.0246 117.341 36.8669C117.081 37.2235 116.622 37.4155 115.965 37.4155C114.597 37.4155 113.831 36.3732 113.831 35.0292C113.831 33.6098 114.659 32.54 116.143 32.54C117.354 32.54 118.073 33.2258 118.182 34.028H117.163C117.067 33.7126 116.821 33.3355 116.13 33.3355C115.158 33.3355 114.884 34.1515 114.884 34.9812C114.884 35.7972 115.199 36.5995 116.136 36.5995C117.005 36.5995 117.17 35.9892 117.17 35.5709V35.5229H116.136V34.6863H118.168ZM120.87 35.4406H120.2V37.3332H119.201V32.6086H121.274C122.3 32.6086 122.854 33.1709 122.854 33.9046C122.854 34.5355 122.512 34.8783 122.17 35.0223C122.403 35.1115 122.759 35.3515 122.759 36.2018V36.4349C122.759 36.7503 122.759 37.1138 122.827 37.3332H121.855C121.773 37.1275 121.76 36.7709 121.76 36.2703V36.2018C121.76 35.6875 121.63 35.4406 120.87 35.4406ZM120.2 33.4178V34.6246H121.055C121.609 34.6246 121.828 34.412 121.828 34.0212C121.828 33.6372 121.575 33.4178 121.075 33.4178H120.2ZM125.845 32.54C127.227 32.54 128.103 33.5069 128.103 34.9538C128.103 36.2703 127.316 37.4018 125.783 37.4018C124.299 37.4018 123.526 36.3252 123.526 34.9675C123.526 33.596 124.381 32.54 125.845 32.54ZM125.804 33.3698C124.949 33.3698 124.579 34.028 124.579 34.9469C124.579 35.8726 124.983 36.572 125.818 36.572C126.728 36.572 127.049 35.8109 127.049 34.9675C127.049 34.0692 126.68 33.3698 125.804 33.3698Z" fill="#D9D9D9"/>
    <path d="M24.7674 10.2322V21.8055C24.7674 24.4722 24.9802 28.3122 25.1399 28.9522H17.8495C17.6367 28.4189 17.477 26.9255 17.477 26.2322C16.466 27.7789 14.6035 29.5922 9.70775 29.5922C3.05596 29.5922 0.288818 25.2189 0.288818 20.9522C0.288818 14.6589 5.29096 11.7255 13.3795 11.7255H17.3174V10.0722C17.3174 8.09888 16.6256 6.17888 13.0602 6.17888C9.86739 6.17888 9.12239 7.51222 8.8031 9.53888H1.56596C1.93846 4.63222 4.97168 0.685547 13.3795 0.685547C20.7231 0.738879 24.7674 3.61888 24.7674 10.2322ZM17.3174 17.1122V16.3655H14.231C9.60132 16.3655 7.89846 17.8055 7.89846 20.4722C7.89846 22.4455 9.12239 24.1522 11.8895 24.1522C16.732 24.1522 17.3174 20.7389 17.3174 17.1122ZM51.8319 10.2322V21.8055C51.8319 24.4722 52.0447 28.3122 52.2044 28.9522H44.914C44.7012 28.4189 44.5415 26.9255 44.5415 26.2322C43.5304 27.7789 41.6679 29.5922 36.7722 29.5922C30.1204 29.5922 27.3533 25.2189 27.3533 20.9522C27.3533 14.6589 32.3554 11.7255 40.444 11.7255H44.3819V10.0722C44.3819 8.09888 43.6901 6.17888 40.1247 6.17888C36.9319 6.17888 36.1869 7.51222 35.8676 9.53888H28.6304C29.0029 4.63222 32.0362 0.685547 40.444 0.685547C47.7876 0.738879 51.8319 3.61888 51.8319 10.2322ZM44.3819 17.1122V16.3655H41.2954C36.6658 16.3655 34.9629 17.8055 34.9629 20.4722C34.9629 22.4455 36.1869 24.1522 38.954 24.1522C43.7965 24.1522 44.3819 20.7389 44.3819 17.1122ZM81.078 9.27222V25.5922C81.078 34.4455 77.8319 40.0456 67.402 40.0456C57.3445 40.0456 55.3756 34.4455 55.1095 31.2989H62.8788C63.4109 33.2189 64.7945 34.4989 67.7213 34.4989C72.6702 34.4989 73.6281 31.4589 73.6281 26.0722V24.7389C72.1913 27.1389 69.9031 28.6322 65.8588 28.6322C58.6216 28.6322 54.4709 22.6589 54.4709 15.2455C54.4709 6.60555 59.6327 0.685547 66.4974 0.685547C71.2334 0.685547 73.2024 2.92555 73.6281 4.20555C73.6813 3.45888 73.8941 1.80555 73.9474 1.32555H81.1312C81.1312 3.83222 81.078 6.60555 81.078 9.27222ZM62.2934 14.9255C62.2934 19.6722 64.6881 22.4455 68.0406 22.4455C72.617 22.4455 73.8409 19.2989 73.8409 14.6589C73.8409 10.0189 73.0427 6.81888 68.2002 6.81888C64.9009 6.81888 62.2934 9.37888 62.2934 14.9255ZM85.1572 28.9522V8.84555C85.1572 6.07222 85.1572 3.67221 85.104 1.32555H92.6073C92.7137 1.96555 92.8201 4.68555 92.8201 6.17888C94.044 3.03221 96.9708 0.738879 101.654 0.685547V7.99222C96.1194 7.83222 92.8201 9.32555 92.8201 16.8989V28.9522H85.1572ZM115.732 0.685547C123.82 0.685547 129.089 6.44555 129.089 15.0855C129.089 23.4589 124.087 29.5922 115.359 29.5922C106.845 29.5922 101.843 23.4589 101.843 15.2455C101.843 6.71222 107.005 0.685547 115.732 0.685547ZM115.413 6.71222C111.9 6.71222 109.559 9.32555 109.559 15.1389C109.559 20.4722 111.847 23.6189 115.519 23.6189C119.297 23.6189 121.373 20.4722 121.373 15.1922C121.373 9.43222 119.244 6.71222 115.413 6.71222Z" fill="white"/>
    </svg>
</symbol>

<symbol id="arrow" viewBox="0 0 32 32">
<path fill="#fff" style="fill: var(--color1, #fff)" d="M32 16c0 8.837-7.163 16-16 16s-16-7.163-16-16c0-8.837 7.163-16 16-16s16 7.163 16 16z"></path>
<path fill="#e00502" style="fill: var(--color2, #e00502)" d="M8.727 15.418c-0.482 0-0.873 0.391-0.873 0.873s0.391 0.873 0.873 0.873v-1.745zM23.308 16.908c0.341-0.341 0.341-0.893 0-1.234l-5.554-5.554c-0.341-0.341-0.893-0.341-1.234 0s-0.341 0.893 0 1.234l4.937 4.937-4.937 4.937c-0.341 0.341-0.341 0.893 0 1.234s0.893 0.341 1.234 0l5.554-5.554zM8.727 17.164h13.964v-1.745h-13.964v1.745z"></path>
</symbol>

<symbol id="frame1" viewBox="0 0 252 265">
  <svg width="252" height="265" fill="none" xmlns="http://www.w3.org/2000/svg" xmlns:xlink="http://www.w3.org/1999/xlink">
    <rect x="0.863281" y="0.5" width="250.274" height="264" rx="12" fill="url(#pattern0_2739_20266)"/>
    <defs>
    <pattern id="pattern0_2739_20266" patternContentUnits="objectBoundingBox" width="1" height="1">
    <use xlink:href="#image0_2739_20266" transform="translate(-0.249077 -0.211135) scale(0.000479664)"/>
    </pattern>
    <image id="image0_2739_20266" xlink:href="src/components/en/Team/img1.jpg" width="2086" height="2086"/>
    </defs>
    </svg>
  </symbol>

  <symbol id="frame2" viewBox="0 0 252 265">
    <svg width="252" height="265" fill="none" xmlns="http://www.w3.org/2000/svg" xmlns:xlink="http://www.w3.org/1999/xlink">
      <rect x="0.863281" y="0.5" width="250.274" height="264" rx="12" fill="url(#pattern0_2739_20266)"/>
      <defs>
      <pattern id="pattern0_2739_20266" patternContentUnits="objectBoundingBox" width="1" height="1">
      <use xlink:href="#image0_2739_20266" transform="translate(-0.249077 -0.211135) scale(0.000479664)"/>
      </pattern>
      <image id="image0_2739_20266" xlink:href="src/components/en/Team/img2.jpg" width="2086" height="2086"/>
      </defs>
      </svg>
    </symbol>
    <symbol id="frame3" viewBox="0 0 252 265">
      <svg width="252" height="265" fill="none" xmlns="http://www.w3.org/2000/svg" xmlns:xlink="http://www.w3.org/1999/xlink">
        <rect x="0.863281" y="0.5" width="250.274" height="264" rx="12" fill="url(#pattern0_2739_20266)"/>
        <defs>
        <pattern id="pattern0_2739_20266" patternContentUnits="objectBoundingBox" width="1" height="1">
        <use xlink:href="#image0_2739_20266" transform="translate(-0.249077 -0.211135) scale(0.000479664)"/>
        </pattern>
        <image id="image0_2739_20266" xlink:href="src/components/en/Team/img3.jpg" width="2086" height="2086"/>
        </defs>
        </svg>
      </symbol>

      <symbol id="smallrec" viewBox="0 0 10 10">
        <svg width="10" height="10" fill="none" xmlns="http://www.w3.org/2000/svg">
          <rect width="10" height="10" fill="#E00502"/>
          </svg>
    </symbol>
<symbol id="icon-insta-new" viewBox="0 0 32 32" >
<path    d="M23.385 0h-14.769c-4.756 0.005-8.61 3.859-8.615 8.615v14.769c0.005 4.756 3.859 8.61 8.615 8.615h14.769c4.756-0.005 8.61-3.859 8.615-8.615v-14.769c-0.005-4.756-3.859-8.61-8.615-8.615zM16 23.385c-5.685 0-9.238-6.153-6.395-11.077s9.948-4.924 12.791-0.001c0.648 1.123 0.99 2.396 0.99 3.693-0.004 4.077-3.308 7.38-7.385 7.385zM25.231 8.615c-1.421 0-2.309-1.538-1.599-2.769s2.487-1.231 3.198-0c0.162 0.281 0.247 0.599 0.247 0.923 0 1.020-0.826 1.846-1.846 1.846zM20.923 16c0 3.79-4.103 6.158-7.385 4.263s-3.282-6.632 0-8.527c0.748-0.432 1.597-0.66 2.462-0.66 2.719 0 4.923 2.204 4.923 4.923z"></path>
</symbol>
<symbol id="icon-fb-new" viewBox="0 0 34 32" >
<path  d="M32.762 16.098c0-8.892-7.164-16.1-16-16.1-8.84 0.002-16.004 7.208-16.004 16.102 0 8.034 5.852 14.694 13.5 15.902v-11.25h-4.060v-4.652h4.064v-3.55c0-4.034 2.39-6.262 6.044-6.262 1.752 0 3.582 0.314 3.582 0.314v3.96h-2.018c-1.986 0-2.606 1.242-2.606 2.516v3.020h4.436l-0.708 4.652h-3.73v11.25c7.648-1.208 13.5-7.868 13.5-15.902z"></path>
</symbol>
<symbol id="icon-telegram-new" viewBox="0 0 32 32">
<path d="M16 32c8.836 0 16-7.164 16-16s-7.164-16-16-16c-8.836 0-16 7.164-16 16s7.164 16 16 16zM5.792 14.8c0-0.148 0.097-0.288 0.236-0.34l17.926-6.832c0.062-0.023 0.129-0.029 0.194-0.017s0.126 0.041 0.176 0.084c0.099 0.087 0.146 0.228 0.114 0.358l-3.575 15.037c-0.014 0.058-0.042 0.112-0.082 0.157s-0.089 0.079-0.145 0.101c-0.056 0.021-0.117 0.027-0.176 0.019s-0.116-0.031-0.164-0.065l-3.809-2.756-0.146 0.096c-0.578 0.385-1.158 0.767-1.74 1.146-0.454 0.296-0.911 0.587-1.372 0.873-0.168 0.104-0.339 0.204-0.512 0.301-0.067 0.037-0.135 0.072-0.204 0.105-0.037 0.018-0.075 0.034-0.113 0.048-0.18 0.060-0.373 0.069-0.559 0.026s-0.355-0.134-0.492-0.266c-0.152-0.158-0.254-0.358-0.294-0.573l-0.001-0.007-1.168-5.744-3.857-1.408c-0.069-0.027-0.128-0.074-0.17-0.134s-0.065-0.132-0.066-0.206zM11.308 16.244l1.057 5.203 1.178-3.583 6.025-5.404c0.038-0.036 0.062-0.084 0.068-0.136s-0.006-0.105-0.035-0.149c-0.030-0.042-0.075-0.073-0.125-0.086s-0.104-0.009-0.151 0.013l-8.017 4.141z"></path>
</symbol>

<symbol id="icon-cash" viewBox="0 0 32 32">
<path stroke-linejoin="round" stroke-linecap="round" stroke-miterlimit="4" stroke-width="1.3333" d="M18.667 10h-2.861c-0.557 0-1.097 0.188-1.534 0.534s-0.744 0.828-0.871 1.37c-0.128 0.542-0.069 1.111 0.167 1.615s0.635 0.914 1.133 1.163l2.6 1.3c0.499 0.249 0.899 0.659 1.135 1.163s0.295 1.074 0.167 1.617c-0.128 0.542-0.435 1.025-0.872 1.371s-0.978 0.534-1.535 0.533h-2.861"></path>
<path stroke-linejoin="round" stroke-linecap="round" stroke-miterlimit="4" stroke-width="1.3333" d="M16 10.003v-2"></path>
<path stroke-linejoin="round" stroke-linecap="round" stroke-miterlimit="4" stroke-width="1.3333" d="M16 22.669v-2"></path>
<path stroke-linejoin="round" stroke-linecap="round" stroke-miterlimit="4" stroke-width="1.3333" d="M2.667 5.035v10.183c-0.005 3.304 0.988 6.533 2.851 9.262s4.507 4.831 7.586 6.030l1.429 0.557c0.948 0.368 1.999 0.368 2.947 0l1.423-0.551c3.079-1.2 5.723-3.304 7.584-6.034s2.854-5.96 2.847-9.264v-10.183c0.002-0.392-0.109-0.777-0.319-1.107s-0.511-0.594-0.867-0.759c-3.826-1.684-7.966-2.537-12.147-2.501-4.18-0.038-8.32 0.813-12.147 2.495-0.357 0.165-0.659 0.43-0.869 0.762s-0.321 0.718-0.318 1.111z"></path>
</symbol>

<symbol id="icon-second" viewBox="0 0 32 32">
<path stroke-linejoin="round" stroke-linecap="round" stroke-miterlimit="4" stroke-width="1.3333" d="M13.773 31.333c-0.585-1.013-1.427-1.855-2.44-2.44s-2.163-0.893-3.333-0.893c-1.17 0-2.32 0.308-3.333 0.893s-1.855 1.427-2.44 2.44"></path>
<path stroke-linejoin="round" stroke-linecap="round" stroke-miterlimit="4" stroke-width="1.3333" d="M4.547 20.64c0.621 0.641 1.365 1.151 2.188 1.499s1.706 0.528 2.599 0.528c0.917 0.003 1.825-0.183 2.667-0.547"></path>
<path stroke-linejoin="round" stroke-linecap="round" stroke-miterlimit="4" stroke-width="1.3333" d="M4 22.667c0 1.061 0.421 2.078 1.172 2.828s1.768 1.172 2.828 1.172 2.078-0.421 2.828-1.172c0.75-0.75 1.172-1.768 1.172-2.828s-0.421-2.078-1.172-2.828c-0.75-0.75-1.768-1.172-2.828-1.172s-2.078 0.421-2.828 1.172c-0.75 0.75-1.172 1.768-1.172 2.828z"></path>
<path stroke-linejoin="round" stroke-linecap="round" stroke-miterlimit="4" stroke-width="1.3333" d="M18.227 31.333c0.585-1.013 1.427-1.855 2.44-2.44s2.163-0.893 3.333-0.893c1.17 0 2.32 0.308 3.333 0.893s1.855 1.427 2.44 2.44"></path>
<path stroke-linejoin="round" stroke-linecap="round" stroke-miterlimit="4" stroke-width="1.3333" d="M27.453 20.64c-0.621 0.641-1.365 1.151-2.188 1.499s-1.706 0.528-2.599 0.528c-0.917 0.003-1.825-0.183-2.667-0.547"></path>
<path stroke-linejoin="round" stroke-linecap="round" stroke-miterlimit="4" stroke-width="1.3333" d="M20 22.667c0 1.061 0.421 2.078 1.172 2.828s1.768 1.172 2.828 1.172 2.078-0.421 2.828-1.172c0.75-0.75 1.172-1.768 1.172-2.828s-0.421-2.078-1.172-2.828c-0.75-0.75-1.768-1.172-2.828-1.172s-2.078 0.421-2.828 1.172c-0.75 0.75-1.172 1.768-1.172 2.828z"></path>
<path stroke-linejoin="round" stroke-linecap="round" stroke-miterlimit="4" stroke-width="1.3333" d="M25.333 0.667c0.354 0 0.693 0.14 0.943 0.391s0.391 0.589 0.391 0.943v12c0 0.354-0.14 0.693-0.391 0.943s-0.589 0.391-0.943 0.391h-5.56l-4 4v-4h-9.107c-0.354 0-0.693-0.14-0.943-0.391s-0.391-0.589-0.391-0.943v-12c0-0.354 0.14-0.693 0.391-0.943s0.589-0.391 0.943-0.391h18.667z"></path>
</symbol>
<symbol id="icon-third" viewBox="0 0 32 32">
<path stroke-linejoin="round" stroke-linecap="round" stroke-miterlimit="4" stroke-width="1.3333" d="M18.383 20.968h0.284c0 0 4.604 0.009 4.667 0l2.907-0.533c0.307-0.056 0.585-0.218 0.784-0.458s0.309-0.542 0.309-0.854v-7.245c0-0.268-0.081-0.53-0.232-0.751s-0.365-0.392-0.615-0.49l-6.727-2.636c-0.332-0.13-0.692-0.169-1.043-0.113s-0.682 0.205-0.957 0.431l-4.887 4.020c-0.185 0.152-0.312 0.364-0.357 0.599s-0.007 0.479 0.108 0.689c0.115 0.21 0.301 0.373 0.524 0.46s0.47 0.094 0.697 0.019l5.488-1.804"></path>
<path stroke-linejoin="round" stroke-linecap="round" stroke-miterlimit="4" stroke-width="1.3333" d="M4.667 18.301l3.467 0.667 4.78 4.78c0.151 0.151 0.336 0.264 0.539 0.328s0.42 0.080 0.63 0.044l0.667-0.116c0.272-0.047 0.522-0.176 0.717-0.371s0.324-0.445 0.371-0.717l0.232-1.351 2.279-0.393 0.393-2.277 2.279-0.393 0.392-2.279-3.467-3.467"></path>
<path stroke-linejoin="round" stroke-linecap="round" stroke-miterlimit="4" stroke-width="1.3333" d="M15.427 10.237l-1.972-1.971c-0.186-0.187-0.424-0.315-0.683-0.366s-0.527-0.025-0.771 0.076l-4 1.659-3.333 0.667"></path>
<path stroke-linejoin="round" stroke-linecap="round" stroke-miterlimit="4" stroke-width="1.3333" d="M0.667 8.301h2.667c0.354 0 0.693 0.14 0.943 0.391s0.391 0.589 0.391 0.943v9.333c0 0.354-0.14 0.693-0.391 0.943s-0.589 0.391-0.943 0.391h-2.667v-12z"></path>
<path stroke-linejoin="round" stroke-linecap="round" stroke-miterlimit="4" stroke-width="1.3333" d="M28.667 9.635h2.667v12h-2.667c-0.354 0-0.693-0.14-0.943-0.391s-0.391-0.589-0.391-0.943v-9.333c0-0.354 0.14-0.693 0.391-0.943s0.589-0.391 0.943-0.391z"></path>
</symbol>
<symbol id="icon-six" viewBox="0 0 32 32">
<path stroke-linejoin="round" stroke-linecap="round" stroke-miterlimit="4" stroke-width="1.3333" d="M24.333 10.333c0 0.796 0.316 1.559 0.879 2.121s1.326 0.879 2.121 0.879c0.796 0 1.559-0.316 2.121-0.879s0.879-1.326 0.879-2.121c0-0.796-0.316-1.559-0.879-2.121s-1.326-0.879-2.121-0.879c-0.796 0-1.559 0.316-2.121 0.879s-0.879 1.326-0.879 2.121z"></path>
<path stroke-linejoin="round" stroke-linecap="round" stroke-miterlimit="4" stroke-width="1.3333" d="M27.333 14.667c-1.061 0-2.078 0.421-2.828 1.172s-1.172 1.768-1.172 2.828v3.333h2l0.667 6h2.667l0.667-6h2v-3.333c0-1.061-0.421-2.078-1.172-2.828s-1.768-1.172-2.828-1.172z"></path>
<path stroke-linejoin="round" stroke-linecap="round" stroke-miterlimit="4" stroke-width="1.3333" d="M1.667 10.333c0 0.394 0.078 0.784 0.228 1.148s0.372 0.695 0.65 0.973c0.279 0.279 0.609 0.5 0.973 0.65s0.754 0.228 1.148 0.228 0.784-0.078 1.148-0.228c0.364-0.151 0.695-0.372 0.973-0.65s0.5-0.609 0.65-0.973c0.151-0.364 0.228-0.754 0.228-1.148s-0.078-0.784-0.228-1.148c-0.151-0.364-0.372-0.695-0.65-0.973s-0.609-0.5-0.973-0.65c-0.364-0.151-0.754-0.228-1.148-0.228s-0.784 0.078-1.148 0.228c-0.364 0.151-0.695 0.372-0.973 0.65s-0.5 0.609-0.65 0.973c-0.151 0.364-0.228 0.754-0.228 1.148z"></path>
<path stroke-linejoin="round" stroke-linecap="round" stroke-miterlimit="4" stroke-width="1.3333" d="M4.667 14.667c-1.061 0-2.078 0.421-2.828 1.172s-1.172 1.768-1.172 2.828v3.333h2l0.667 6h2.667l0.667-6h2v-3.333c0-1.061-0.421-2.078-1.172-2.828s-1.768-1.172-2.828-1.172z"></path>
<path stroke-linejoin="round" stroke-linecap="round" stroke-miterlimit="4" stroke-width="1.3333" d="M15.333 0.667l2.667 2.667-2.667 2.667"></path>
<path stroke-linejoin="round" stroke-linecap="round" stroke-miterlimit="4" stroke-width="1.3333" d="M12 3.333h6"></path>
<path stroke-linejoin="round" stroke-linecap="round" stroke-miterlimit="4" stroke-width="1.3333" d="M15.333 26l-2.667 2.667 2.667 2.667"></path>
<path stroke-linejoin="round" stroke-linecap="round" stroke-miterlimit="4" stroke-width="1.3333" d="M18.667 28.667h-6"></path>
</symbol>
<symbol id="icon-fourth" viewBox="0 0 32 32">
<path stroke-linejoin="round" stroke-linecap="round" stroke-miterlimit="4" stroke-width="1.3333" d="M11.333 31.333h-9.333c-0.354 0-0.693-0.14-0.943-0.391s-0.391-0.589-0.391-0.943v-28c0-0.354 0.14-0.693 0.391-0.943s0.589-0.391 0.943-0.391h17.724c0.354 0 0.693 0.141 0.943 0.391l4.943 4.943c0.25 0.25 0.391 0.589 0.391 0.943v4.391"></path>
<path stroke-linejoin="round" stroke-linecap="round" stroke-miterlimit="4" stroke-width="1.3333" d="M4.667 11.695l1.444 1.443c0.068 0.068 0.151 0.121 0.242 0.155s0.188 0.047 0.284 0.039 0.19-0.037 0.274-0.084c0.084-0.048 0.157-0.113 0.213-0.192l2.876-4.027"></path>
<path stroke-linejoin="round" stroke-linecap="round" stroke-miterlimit="4" stroke-width="1.3333" d="M14 11.333h5.333"></path>
<path stroke-linejoin="round" stroke-linecap="round" stroke-miterlimit="4" stroke-width="1.3333" d="M4.667 18.361l1.444 1.443c0.068 0.068 0.151 0.121 0.242 0.155s0.188 0.047 0.284 0.039 0.19-0.037 0.274-0.084c0.084-0.048 0.157-0.113 0.213-0.192l2.876-4.027"></path>
<path stroke-linejoin="round" stroke-linecap="round" stroke-miterlimit="4" stroke-width="1.3333" d="M14 18h5.333"></path>
<path stroke-linejoin="round" stroke-linecap="round" stroke-miterlimit="4" stroke-width="1.3333" d="M30.507 20.159l-10.173 10.175-5 1 1-5 10.173-10.175c0.529-0.529 1.247-0.826 1.995-0.826s1.466 0.297 1.995 0.826l0.011 0.012c0.262 0.262 0.47 0.573 0.612 0.915s0.215 0.709 0.215 1.079c0 0.37-0.073 0.737-0.215 1.079s-0.35 0.653-0.612 0.915z"></path>
</symbol>
<symbol id="icon-six" viewBox="0 0 32 32">
<path stroke-linejoin="round" stroke-linecap="round" stroke-miterlimit="4" stroke-width="1.3333" d="M0.667 22.827c0 0.47 0.093 0.935 0.272 1.369s0.443 0.828 0.775 1.161c0.332 0.332 0.727 0.596 1.161 0.775s0.899 0.272 1.369 0.272 0.935-0.093 1.369-0.272c0.434-0.18 0.828-0.443 1.161-0.775s0.596-0.727 0.775-1.161c0.18-0.434 0.272-0.899 0.272-1.369s-0.093-0.935-0.272-1.369c-0.18-0.434-0.443-0.828-0.775-1.161s-0.727-0.596-1.161-0.775-0.899-0.272-1.369-0.272c-0.47 0-0.935 0.093-1.369 0.272s-0.828 0.443-1.161 0.775c-0.332 0.332-0.596 0.727-0.775 1.161s-0.272 0.899-0.272 1.369z"></path>
<path stroke-linejoin="round" stroke-linecap="round" stroke-miterlimit="4" stroke-width="1.3333" d="M9.887 31.152c-0.361-0.845-0.907-1.598-1.598-2.204s-1.509-1.048-2.395-1.295c-0.885-0.247-1.814-0.292-2.719-0.131s-1.762 0.522-2.508 1.059"></path>
<path stroke-linejoin="round" stroke-linecap="round" stroke-miterlimit="4" stroke-width="1.3333" d="M24.179 22.827c0 0.949 0.377 1.859 1.048 2.53s1.581 1.048 2.53 1.048c0.949 0 1.859-0.377 2.53-1.048s1.048-1.581 1.048-2.53c0-0.949-0.377-1.859-1.048-2.53s-1.581-1.048-2.53-1.048c-0.949 0-1.859 0.377-2.53 1.048s-1.048 1.581-1.048 2.53z"></path>
<path stroke-linejoin="round" stroke-linecap="round" stroke-miterlimit="4" stroke-width="1.3333" d="M22.113 31.152c0.361-0.845 0.907-1.598 1.598-2.204s1.509-1.048 2.394-1.295c0.885-0.247 1.814-0.292 2.719-0.131s1.762 0.522 2.508 1.059"></path>
<path stroke-linejoin="round" stroke-linecap="round" stroke-miterlimit="4" stroke-width="1.3333" d="M11.4 21.804c0 1.22 0.485 2.39 1.347 3.253s2.033 1.347 3.253 1.347c1.22 0 2.39-0.485 3.253-1.347s1.347-2.033 1.347-3.253c0-1.22-0.485-2.39-1.347-3.253s-2.033-1.347-3.253-1.347c-1.22 0-2.39 0.485-3.253 1.347s-1.347 2.033-1.347 3.253z"></path>
<path stroke-linejoin="round" stroke-linecap="round" stroke-miterlimit="4" stroke-width="1.3333" d="M22.113 31.152c-0.775-0.851-1.719-1.531-2.771-1.996s-2.191-0.706-3.342-0.706c-1.151 0-2.289 0.24-3.342 0.706s-1.997 1.145-2.771 1.996"></path>
<path stroke-linejoin="round" stroke-linecap="round" stroke-miterlimit="4" stroke-width="1.3333" d="M12.345 19.019c1.085 1.045 2.388 1.836 3.815 2.318s2.943 0.641 4.439 0.468"></path>
<path stroke-linejoin="round" stroke-linecap="round" stroke-miterlimit="4" stroke-width="1.3333" d="M1.017 21.291c2.024 1.208 4.378 1.745 6.725 1.532"></path>
<path stroke-linejoin="round" stroke-linecap="round" stroke-miterlimit="4" stroke-width="1.3333" d="M24.533 21.291c2.024 1.209 4.378 1.745 6.725 1.532"></path>
</symbol>
<symbol id="icon-fifth" viewBox="0 0 32 32">
<path stroke-linejoin="round" stroke-linecap="round" stroke-miterlimit="4" stroke-width="1.3333" d="M4.667 8.003h22.667c0 0 4 0 4 4v13.333c0 0 0 4-4 4h-22.667c0 0-4 0-4-4v-13.333c0 0 0-4 4-4z"></path>
<path stroke-linejoin="round" stroke-linecap="round" stroke-miterlimit="4" stroke-width="1.3333" d="M11.333 8v-2.667c0.002-0.707 0.283-1.384 0.783-1.884s1.177-0.781 1.884-0.783h4c0.707 0.002 1.384 0.284 1.883 0.783s0.781 1.177 0.783 1.883v2.667"></path>
<path stroke-linejoin="round" stroke-linecap="round" stroke-miterlimit="4" stroke-width="1.3333" d="M16 14.669v-1.333"></path>
<path stroke-linejoin="round" stroke-linecap="round" stroke-miterlimit="4" stroke-width="1.3333" d="M18 14.667h-2.711c-0.415 0-0.818 0.145-1.138 0.41s-0.539 0.632-0.617 1.040c-0.079 0.408-0.013 0.83 0.185 1.195s0.518 0.649 0.903 0.804l2.752 1.1c0.386 0.155 0.707 0.439 0.906 0.804s0.265 0.788 0.186 1.197-0.298 0.777-0.619 1.041c-0.321 0.265-0.724 0.409-1.14 0.409h-2.708"></path>
<path stroke-linejoin="round" stroke-linecap="round" stroke-miterlimit="4" stroke-width="1.3333" d="M16 24.003v-1.333"></path>
</symbol>
<symbol id="icon-first" viewBox="0 0 32 32">
<path stroke-linejoin="round" stroke-linecap="round" stroke-miterlimit="4" stroke-width="1.3333" d="M31.333 29.333l-1.333-2.579v-6.088c0.056-2.371-2.775-4.484-5.333-6.667"></path>
<path stroke-linejoin="round" stroke-linecap="round" stroke-miterlimit="4" stroke-width="1.3333" d="M26.692 23.333l-3.401-3.476c-0.152-0.158-0.333-0.284-0.534-0.372s-0.417-0.134-0.636-0.138c-0.219-0.004-0.436 0.036-0.64 0.117s-0.389 0.201-0.546 0.354c-0.157 0.153-0.282 0.335-0.368 0.536s-0.132 0.418-0.134 0.637c-0.002 0.219 0.039 0.436 0.121 0.639s0.203 0.388 0.357 0.543l3.755 3.827v2c0.204 1.193 0.659 2.329 1.333 3.333"></path>
<path stroke-linejoin="round" stroke-linecap="round" stroke-miterlimit="4" stroke-width="1.3333" d="M0.667 2.667l1.333 2.579v6.088c-0.056 2.371 2.775 4.484 5.333 6.667"></path>
<path stroke-linejoin="round" stroke-linecap="round" stroke-miterlimit="4" stroke-width="1.3333" d="M5.308 8.667l3.401 3.476c0.152 0.158 0.333 0.284 0.534 0.372s0.417 0.134 0.636 0.138c0.219 0.004 0.436-0.036 0.64-0.117s0.389-0.201 0.546-0.354c0.157-0.153 0.282-0.335 0.368-0.536s0.132-0.418 0.134-0.637c0.002-0.219-0.039-0.436-0.121-0.639s-0.203-0.388-0.357-0.543l-3.755-3.827v-2c-0.204-1.193-0.659-2.329-1.333-3.333"></path>
<path stroke-linejoin="round" stroke-linecap="round" stroke-miterlimit="4" stroke-width="1.3333" d="M7.333 10.736v19.931c0 0.177 0.070 0.346 0.195 0.471s0.295 0.195 0.471 0.195h14.667"></path>
<path stroke-linejoin="round" stroke-linecap="round" stroke-miterlimit="4" stroke-width="1.3333" d="M14.667 3.333h-4.667"></path>
<path stroke-linejoin="round" stroke-linecap="round" stroke-miterlimit="4" stroke-width="1.3333" d="M24.667 21.264v-7.931"></path>
<path stroke-linejoin="round" stroke-linecap="round" stroke-miterlimit="4" stroke-width="1.3333" d="M17.333 20.667h-7.333"></path>
<path stroke-linejoin="round" stroke-linecap="round" stroke-miterlimit="4" stroke-width="1.3333" d="M22 16.667h-12"></path>
<path stroke-linejoin="round" stroke-linecap="round" stroke-miterlimit="4" stroke-width="1.3333" d="M16 24.667h-6"></path>
<path stroke-linejoin="round" stroke-linecap="round" stroke-miterlimit="4" stroke-width="1.3333" d="M27.333 6c0 1.055-0.313 2.086-0.899 2.963s-1.419 1.561-2.394 1.964-2.047 0.509-3.081 0.304c-1.035-0.206-1.985-0.714-2.731-1.46s-1.254-1.696-1.46-2.731c-0.206-1.035-0.1-2.107 0.304-3.081s1.087-1.808 1.964-2.394c0.877-0.586 1.908-0.899 2.963-0.899"></path>
<path stroke-linejoin="round" stroke-linecap="round" stroke-miterlimit="4" stroke-width="1.3333" d="M27.333 2l-4.861 4.861c-0.062 0.062-0.135 0.111-0.216 0.145s-0.168 0.051-0.256 0.051c-0.088 0-0.175-0.017-0.256-0.051s-0.155-0.083-0.216-0.145l-1.528-1.528"></path>
</symbol>
<symbol id="icon-business-handshake" viewBox="0 0 32 32">
<path stroke-linejoin="round" stroke-linecap="round" stroke-miterlimit="4" stroke-width="2" d="M2 20.159c4.869 3.879 9.444 6.945 11.969 8.568 0.605 0.391 1.31 0.599 2.031 0.599s1.426-0.208 2.031-0.599c2.525-1.623 7.1-4.689 11.969-8.568"></path>
<path stroke-linejoin="round" stroke-linecap="round" stroke-miterlimit="4" stroke-width="2" d="M16 11.815c-0.575-0.475-1.157-0.94-1.747-1.397-0.679-0.525-1.519-0.815-2.373-0.735-2.332 0.219-4.28 0.92-4.28 0.92s-2.267-1.937-5.6-4.603"></path>
<path stroke-linejoin="round" stroke-linecap="round" stroke-miterlimit="4" stroke-width="2" d="M19.667 15.027c3.427 3.175 7 7.64 7 7.64"></path>
<path stroke-linejoin="round" stroke-linecap="round" stroke-miterlimit="4" stroke-width="2" d="M30 6c-3.333 2.667-5.6 4.603-5.6 4.603s-1.936-0.697-4.259-0.918c-0.867-0.083-1.721 0.215-2.403 0.759-1.803 1.436-3.507 2.993-5.101 4.658-0.595 0.626-0.689 1.59-0.094 2.215 0.525 0.551 1.037 0.884 1.426 1.081 0.431 0.219 0.927 0.137 1.335-0.122 1.533-0.982 2.991-2.077 4.361-3.276 1 1.111 3 2.333 5.667 0.333"></path>
</symbol>
<symbol id="icon-customer-support" viewBox="0 0 32 32">
<path stroke-linejoin="round" stroke-linecap="round" stroke-miterlimit="4" stroke-width="2" d="M6.667 16c0 5.155 4.179 9.333 9.333 9.333s9.333-4.179 9.333-9.333c0-5.155-4.179-9.333-9.333-9.333s-9.333 4.179-9.333 9.333z"></path>
<path stroke-linejoin="round" stroke-linecap="round" stroke-miterlimit="4" stroke-width="2" d="M7.507 19.875c-0.387 0.055-1.093 0.125-2.173 0.125-0.080 0-0.158 0-0.233-0.001-1.393-0.013-2.389-1.11-2.419-2.503-0.021-0.997-0.021-1.994 0-2.991 0.029-1.393 1.025-2.49 2.418-2.503l0.234-0.001c1.081 0 1.787 0.071 2.173 0.125M24.493 19.875c0.387 0.055 1.093 0.125 2.173 0.125 0.080 0 0.158 0 0.233-0.001 1.393-0.013 2.389-1.11 2.419-2.503 0.021-0.997 0.021-1.994 0-2.991-0.029-1.393-1.025-2.49-2.418-2.503l-0.234-0.001c-1.081 0-1.787 0.071-2.173 0.125"></path>
<path stroke-linejoin="round" stroke-linecap="round" stroke-miterlimit="4" stroke-width="2" d="M12.667 12.667v1.333"></path>
<path stroke-linejoin="round" stroke-linecap="round" stroke-miterlimit="4" stroke-width="2" d="M19.333 12.667v1.333"></path>
<path stroke-linejoin="round" stroke-linecap="round" stroke-miterlimit="4" stroke-width="2" d="M26.667 12c0-5.523-4.775-10-10.667-10s-10.667 4.477-10.667 10"></path>
<path stroke-linejoin="round" stroke-linecap="round" stroke-miterlimit="4" stroke-width="2" d="M26.667 20c0 5.523-4.775 10-10.667 10"></path>
<path stroke-linejoin="round" stroke-linecap="round" stroke-miterlimit="4" stroke-width="2" d="M20 18.667c-1.75 2.667-6.25 2.667-8 0"></path>
</symbol><symbol id="icon-target" viewBox="0 0 32 32">
<path stroke-linejoin="round" stroke-linecap="round" stroke-miterlimit="4" stroke-width="2" d="M29.747 13.333c0.167 0.863 0.253 1.755 0.253 2.667 0 7.732-6.268 14-14 14s-14-6.268-14-14c0-7.732 6.268-14 14-14 0.912 0 1.803 0.087 2.667 0.253"></path>
<path stroke-linejoin="round" stroke-linecap="round" stroke-miterlimit="4" stroke-width="2" d="M13.354 13c-0.422 0.373-0.761 0.83-0.994 1.343s-0.355 1.068-0.359 1.632c-0.003 0.563 0.112 1.12 0.339 1.636s0.56 0.977 0.977 1.355 0.91 0.663 1.446 0.837c0.535 0.174 1.102 0.234 1.661 0.174s1.101-0.237 1.588-0.52c0.487-0.283 0.908-0.666 1.237-1.123"></path>
<path stroke-linejoin="round" stroke-linecap="round" stroke-miterlimit="4" stroke-width="2" d="M24.976 15.333c0.016 0.22 0.024 0.443 0.024 0.667 0 4.971-4.029 9-9 9s-9-4.029-9-9c0-4.971 4.029-9 9-9 0.224 0 0.447 0.008 0.667 0.025"></path>
<path stroke-linejoin="round" stroke-linecap="round" stroke-miterlimit="4" stroke-width="2" d="M24 2l1.333 4.667 4.667 1.333-3.669 3.367c-0.216 0.198-0.473 0.346-0.752 0.434s-0.575 0.113-0.866 0.074l-1.967-0.263-5.342 4.77c-0.241 0.215-0.555 0.33-0.878 0.321s-0.63-0.141-0.859-0.37c-0.228-0.228-0.361-0.536-0.37-0.859s0.106-0.637 0.321-0.878l4.771-5.342-0.263-1.967c-0.039-0.29-0.014-0.586 0.074-0.866s0.236-0.536 0.434-0.752l3.366-3.669z"></path>
</symbol>
<symbol id="icon-task-list" viewBox="0 0 32 32">
<path stroke-linejoin="round" stroke-linecap="round" stroke-miterlimit="4" stroke-width="2" d="M25.915 10.338c-0.234-0.653-1.033-2.378-3.512-4.809-2.627-2.576-4.447-3.301-5.013-3.479-1.129-0.035-2.259-0.052-3.389-0.051-4.176 0-7.044 0.213-8.832 0.418-1.467 0.168-2.567 1.269-2.728 2.737-0.213 1.927-0.44 5.161-0.44 10.179s0.227 8.252 0.44 10.179c0.161 1.468 1.261 2.569 2.728 2.737 1.265 0.145 3.071 0.293 5.499 0.369"></path>
<path stroke-linejoin="round" stroke-linecap="round" stroke-miterlimit="4" stroke-width="2" d="M25.924 10.639c-1.391 0.207-3.894 0.048-5.793-0.127-0.724-0.065-1.402-0.381-1.917-0.894s-0.834-1.19-0.902-1.914c-0.179-1.868-0.337-4.311-0.12-5.659"></path>
<path stroke-linejoin="round" stroke-linecap="round" stroke-miterlimit="4" stroke-width="2" d="M27.333 22.839c0 0-0.315-1.405-2.208-3.297s-3.297-2.208-3.297-2.208"></path>
<path stroke-linejoin="round" stroke-linecap="round" stroke-miterlimit="4" stroke-width="2" d="M6.667 8.667l2.667 2.667 3.333-4.667"></path>
<path stroke-linejoin="round" stroke-linecap="round" stroke-miterlimit="4" stroke-width="2" d="M6.667 16l2.667 2.667 3.333-4.667"></path>
<path stroke-linejoin="round" stroke-linecap="round" stroke-miterlimit="4" stroke-width="2" d="M29.11 21.062c0.969-0.969 1.34-2.385 0.529-3.49-0.358-0.484-0.753-0.94-1.18-1.364-0.493-0.493-0.953-0.879-1.365-1.18-1.105-0.811-2.521-0.44-3.49 0.529l-8.227 8.227c-0.362 0.362-0.61 0.822-0.653 1.333-0.058 0.693-0.101 1.873 0.011 3.618 0.020 0.31 0.152 0.603 0.372 0.823s0.513 0.352 0.823 0.372c1.745 0.112 2.925 0.069 3.619 0.011 0.511-0.043 0.971-0.291 1.333-0.653l8.226-8.226z"></path>
</symbol>
</svg>



