<svg width="33" height="55" viewBox="0 0 33 55" fill="none" xmlns="http://www.w3.org/2000/svg">
<path fill-rule="evenodd" clip-rule="evenodd" d="M16.5609 0.500109C3.32117 0.462109 -0.0113251 10.4125 2.8882e-05 16.2922C0.0245981 28.9707 6.76434 38.678 16.7209 54.5C26.4478 38.5085 33 28.9957 33 16.3395C33 10.0918 29.8006 0.538108 16.5609 0.500109ZM16.4009 8.50645C20.9541 8.5059 24.6455 12.0599 24.6459 16.4445C24.6455 20.8291 20.9541 24.3831 16.4009 24.3826C11.8486 24.3822 8.15821 20.8284 8.15777 16.4445C8.15821 12.0606 11.8486 8.50687 16.4009 8.50645Z" fill="#E00502"/>
</svg>
